<?xml version="1.0" encoding="UTF-8"?>
<svg width="16px" height="17px" viewBox="0 0 16 17" version="1.1" xmlns="http://www.w3.org/2000/svg" xmlns:xlink="http://www.w3.org/1999/xlink">
    <!-- Generator: Sketch 60.1 (88133) - https://sketch.com -->
    <title>X</title>
    <desc>Created with Sketch.</desc>
    <g id="Symbols" stroke="none" stroke-width="1" fill="none" fill-rule="evenodd" stroke-linecap="square">
        <g id="hours.inititalstate.v2" transform="translate(0.000000, -34.000000)" stroke="#333333" stroke-width="2">
            <g id="btn" transform="translate(0.000000, 35.000000)">
                <g id="X" transform="translate(8.000000, 8.000000) rotate(45.000000) translate(-8.000000, -8.000000) translate(3.000000, 3.000000)">
                    <line x1="6.34012521e-14" y1="-9.01048658e-15" x2="9.44951789" y2="9.44951789" id="Line-2"></line>
                    <line x1="4.97379915e-14" y1="1.08490768e-14" x2="9.44951789" y2="9.44951789" id="Line-2" transform="translate(4.724759, 4.724759) rotate(-90.000000) translate(-4.724759, -4.724759) "></line>
                </g>
            </g>
        </g>
    </g>
</svg>
